ESM,ESM-257,ESM-231 Verify implementation,Sub-task,Open,Major,Unresolved,Andrew Canfield,Andrew Canfield,Andrew Canfield,1/16/2015 12:13,,1/16/2015 12:13,,ESM 6.6.0,ESM 6.6.0,ESM_Core,,1,,14400,14400,,0%,,,,,,0%,0%,,14400,14400,,,Software,,,,,,Andrew Canfield,,,Needs Further Breakdown,,,,,,,9.22E+18,,,,,,0|i18t9f:,
ESM,ESM-259,ESM-35 Make any updates required to support Macintosh client,Sub-task,Open,Major,Unresolved,Andrew Canfield,Andrew Canfield,Andrew Canfield,1/16/2015 12:17,,1/16/2015 12:17,,ESM 6.6.0,ESM 6.6.0,ESM_Core,,1,,144000,144000,,0%,,,,,,0%,0%,,144000,144000,,,Software,,,,,,Andrew Canfield,,,Needs Further Breakdown,,,,,ESM 6.6 Sprint 5,,9.22E+18,,,,,,0|i18ta3:,
ESM,ESM-258,ESM-35 Research Macintosh support for ESM/WebNMS Java Client,Sub-task,Open,Major,Unresolved,Andrew Canfield,Andrew Canfield,Andrew Canfield,1/16/2015 12:16,,1/16/2015 12:16,,ESM 6.6.0,ESM 6.6.0,ESM_Core,,1,,28800,28800,,0%,,,,,,0%,0%,,28800,28800,,,Software,,,,,,Andrew Canfield,,,Needs Further Breakdown,,,,,ESM 6.6 Sprint 5,,9.22E+18,,,,,,0|i18t9v:,
ESM,ESM-254,ESM-231 Research ESM port protection support and syntax,Sub-task,Open,Major,Unresolved,Andrew Canfield,Andrew Canfield,Andrew Canfield,1/16/2015 12:11,,1/16/2015 12:11,,ESM 6.6.0,ESM 6.6.0,ESM_Core,,1,,57600,57600,,0%,,,,,,0%,0%,,57600,57600,,,Software,,,,,,Andrew Canfield,,,Needs Further Breakdown,,,,,,,9.22E+18,,,,,,0|i18t8j:,
ESM,ESM-255,ESM-231 Update Lag Manager provisioning template to accept protection port input,Sub-task,Open,Major,Unresolved,Andrew Canfield,Andrew Canfield,Andrew Canfield,1/16/2015 12:12,,1/16/2015 12:12,,ESM 6.6.0,ESM 6.6.0,ESM_Core,,1,,14400,14400,,0%,,,,,,0%,0%,,14400,14400,,,Software,,,,,,Andrew Canfield,,,Needs Further Breakdown,,,,,,,9.22E+18,,,,,,0|i18t8z:,
ESM,ESM-256,ESM-231 Add protection port commands to AggManager,Sub-task,Open,Major,Unresolved,Andrew Canfield,Andrew Canfield,Andrew Canfield,1/16/2015 12:13,,1/16/2015 12:13,,ESM 6.6.0,ESM 6.6.0,ESM_Core,,1,,57600,57600,,0%,,,,,,0%,0%,,57600,57600,,,Software,,,,,,Andrew Canfield,,,Needs Further Breakdown,,,,,,,9.22E+18,,,,,,0|i18t97:,
ESM,ESM-194,ESM-93 Remove TFTP dependency non-critical,Sub-task,Open,Major,Unresolved,Andrew Canfield,Lee Tompkins,Lee Tompkins,12/19/2014 14:33,,12/19/2014 14:33,,ESM 6.6.0,ESM 6.6.0,ESM_Core,12/19/2014,1,,144000,144000,,0%,,,,"Remove TFTP dependency for all other actions, create and delete already complete.",,0%,0%,,144000,144000,,,Software,,,,,,"Andrew Canfield, Lee Tompkins",,,Ready for Sprint Planning,,,,,"ESM 6.6 Sprint 3, ESM 6.6 Sprint 4, ESM 6.6 Sprint 5",,9.22E+18,,,,,,0|i18cgj:,
ESM,ESM-166,ESM-164 Inventory,Sub-task,Open,Major,Unresolved,Andrew Canfield,Lee Tompkins,Lee Tompkins,12/13/2014 19:56,,12/19/2014 18:59,,ESM 6.6.0,ESM 6.6.0,ESM_Core,,1,,432000,432000,,0%,,,,"Inventory: 
Chassis 
CEF-4 blade 
Ethernet ports 
TDM ports 
PS, Fan, Xcvr",,0%,0%,,432000,432000,,,Software,,,,,,"Andrew Canfield, Lee Tompkins",,,Needs Further Breakdown,,,,,ESM 6.6 Sprint 5,,9.22E+18,,,,,,0|i186cr:,
ESM,ESM-165,ESM-164 Fault/Alarm/Trap Management,Sub-task,Open,Major,Unresolved,Andrew Canfield,Lee Tompkins,Lee Tompkins,12/13/2014 19:56,,12/19/2014 18:53,,ESM 6.6.0,ESM 6.6.0,ESM_Core,,1,,144000,144000,,0%,,,,Fault/Alarm/Trap Management,,0%,0%,,144000,144000,,,Software,,,,,,"Andrew Canfield, Lee Tompkins",,,Needs Further Breakdown,,,,,ESM 6.6 Sprint 5,,9.22E+18,,,,,,0|i186cj:,
ESM,ESM-125,ESM-25 Add support to CES Node Manager,Sub-task,Closed,Major,Fixed,Andrew Canfield,Andrew Canfield,Andrew Canfield,12/3/2014 19:56,,12/19/2014 14:17,12/19/2014 14:17,ESM 6.6.0,ESM 6.6.0,ESM_Core,,2,,144000,0,144000,100%,,,,,,100%,100%,144000,0,144000,,,Software,,,,,,"Andrew Canfield, Lee Tompkins",,,Needs Further Breakdown,,,,,"ESM 6.6 Sprint 3, ESM 6.6 Sprint 4, ESM 6.6 Sprint 5",,9.22E+18,,,,,,0|i17y2n:,12/19/2014 14:16
ESM,ESM-124,ESM-24 Add support to CES Node Manager,Sub-task,Closed,Major,Fixed,Andrew Canfield,Andrew Canfield,Andrew Canfield,12/3/2014 19:47,2/4/2015 19:34,12/19/2014 15:19,12/19/2014 15:19,ESM 6.6.0,ESM 6.6.0,ESM_Core,,2,,144000,0,115200,80%,,,,,,100%,100%,115200,0,144000,,,Software,,,,,,"Andrew Canfield, Lee Tompkins",,,Needs Further Breakdown,,,,,"ESM 6.6 Sprint 2, ESM 6.6 Sprint 4, ESM 6.6 Sprint 5",,9.22E+18,,,,,,0|i17y2f:,12/19/2014 15:19
ESM,ESM-151,ESM-93 Remove TFTP dependency critical,Sub-task,In Progress,Major,Unresolved,Andrew Canfield,Lee Tompkins,Lee Tompkins,12/11/2014 19:26,,12/20/2014 21:23,,ESM 6.6.0,ESM 6.6.0,ESM_Core,,4,,115200,0,,0%,,,,Use dynamic config task instead of TFTP/config augment,,0%,0%,,0,115200,,,Software,,,,,,"Andrew Canfield, Bo Wen, Lee Tompkins, Sankaralingam Piramanayangam",,,Needs Further Breakdown,,,,,"ESM 6.6 Sprint 3, ESM 6.6 Sprint 4, ESM 6.6 Sprint 5",,9.22E+18,,,,,,0|i18563:,12/18/2014 20:06
ESM,ESM-152,ESM-94 Move code to java,Sub-task,Open,Major,Unresolved,Andrew Canfield,Lee Tompkins,Lee Tompkins,12/11/2014 20:00,,12/17/2014 18:58,,ESM 6.6.0,ESM 6.6.0,ESM_Core,,1,,57600,57600,,0%,,,,Move code to java,,0%,0%,,57600,57600,,,Software,,,,,,"Andrew Canfield, Lee Tompkins",,,Needs Further Breakdown,,,,,"ESM 6.6 Sprint 3, ESM 6.6 Sprint 4, ESM 6.6 Sprint 5",,9.22E+18,,,,,,0|i1856b:,
ESM,ESM-71,ESM-24 Review MTOSI interface support for 3905,Sub-task,Closed,Major,Fixed,Andrew Canfield,Darren Oye,Darren Oye,10/20/2014 20:59,,12/19/2014 15:10,12/19/2014 15:10,ESM 6.6.0,ESM 6.6.0,ESM_Core,11/6/2014,3,,28800,0,28800,100%,,,,"Review MTOSI interface support for 3905 to validate either no changes to interface, or to identify subtasks to fix up the interface to support 3905",,100%,100%,28800,0,28800,,,Software,,,,,,"Andrew Canfield, Darren Oye, Lee Tompkins",,,Ready for Sprint Planning,,,,,"ESM 6.6 Sprint 2, ESM 6.6 Sprint 4, ESM 6.6 Sprint 5",,246502,,,,,,0|i1671b:,11/5/2014 15:40
ESM,ESM-70,ESM-23 Update SAOS 8.3 MIBs,Sub-task,In Progress,Major,Unresolved,Andrew Canfield,Lee Tompkins,Lee Tompkins,10/15/2014 15:41,,1/6/2015 15:43,,ESM 6.6.0,ESM 6.6.0,ESM_Core,11/18/2014,2,,86400,57600,,0%,,,,Update SAOS 8.x MIBs to the latest SAOS 8.3 MIB set,,0%,0%,,57600,86400,,,Software,,,,,,"Andrew Canfield, Lee Tompkins",,,Ready for Sprint Planning,,,,,"ESM 6.6 Sprint 3, ESM 6.6 Sprint 4, ESM 6.6 Sprint 5",,246531,,,,,,0|i1677r:,1/6/2015 15:43
ESM,ESM-60,ESM-24 Review FSD for CN-3905,Sub-task,Closed,Major,Fixed,Andrew Canfield,Lee Tompkins,Lee Tompkins,10/9/2014 17:10,,12/19/2014 15:18,12/19/2014 15:18,ESM 6.6.0,ESM 6.6.0,ESM_Core,10/31/2014,1,,28800,0,28800,100%,,,,Hold a review of changes made to the CN-3905 FSD,,100%,100%,28800,0,28800,,,Software,,,,,,"Andrew Canfield, Lee Tompkins",,,Ready for Sprint Planning,,,,,"ESM 6.6 Sprint 2, ESM 6.6 Sprint 4, ESM 6.6 Sprint 5",,248380,,,,,,0|i16imn:,
